{
	"weeklyengagement": {
		"id": "021",
		"title": "Pet Shop",
		"vo_title": "story21_title",
		"image": "ss_inset_021",
		"background": "ss_bgnd_1",
		"music": "mus_locations",
		"story": [
			[
				{
					"text": "Do you get excited when you hear the sound of dogs going", 
					"vo": "story21_petstore_1"
				},
				{
					"blanktype": "12"
				},
				{
					"text": "or cats going", 
					"vo": "story21_petstore_2"
				},
				{
					"blanktype": "12"
				},
				{
					"text": "?", 
					"vo": ""
				}
			],
			[
				{
					"text": "Then I have a job for you: come work at the pet shop. There are so many",
					"vo": "story21_petstore_3"
				},
				{
					"blanktype": "5"
				},
				{
					"text": ",", 
					"vo": ""
				},
				{
					"blanktype": "5"
				},
				{
					"text": "animals there - ",
					"vo": "story21_petstore_3b"
				}
			],
			[
				{
					"text": "it’s almost like a",
					"vo": "story21_petstore_4"
				},
				{
					"blanktype": "4"
				},
				{
					"text": "zoo, but they pay you to work there!",
					"vo": "story21_petstore_5"
				}
			],
			[
				{
					"text": "Yes, it can be hard work. \nYou have to",
					"vo": "story21_petstore_5b"
				},
				{
					"blanktype": "3"
				}
			],
			[
				{
					"text": "the pets twice a day, and yes, you will have to clean up their", 
					"vo": "story21_petstore_6"
				},
				{
					"blanktype": "2"
				},
				{
					"text": ".", 
					"vo": ""
				}
			],
			[
				{
					"text": "But you get to pet the", 
					"vo": "story21_petstore_7"
				},
				{
					"blanktype": "5"
				},
				{
					"text": "dogs and cats, feed the", 
					"vo": "story21_petstore_8"
				},
				{
					"blanktype": "5"
				},
				{
					"text": "lizards,", 
					"vo": "story21_petstore_9"
				}
			],
			[
				{
					"text": "and you can even try to sing", 
					"vo": "story21_petstore_9b"
				},
				{
					"blanktype": "10"
				},
				{
					"text": "along with the birds while you work!", 
					"vo": "story21_petstore_10"
				}
			],
			[
				{
					"text": "And the best part is, you’re trying to help these animals find a new",
					"vo": "story21_petstore_10b"
				},
				{
					"blanktype": "1"
				},
				{
					"text": ".",
					"vo": ""
				}
			],
			[
				{
					"text": "Wouldn’t that make you feel",
					"vo": "story21_petstore_11"
				},
				{
					"blanktype": "5"
				},
				{
					"text": "?",
					"vo": ""
				}
			]
		]
	}
}