{
	"weeklyengagement": {
		"id": "013",
		"title": "Car Journey",
		"vo_title": "story13_title",
		"image": "ss_inset_013",
		"background": "ss_bgnd_2",
		"music": "mus_locations",
		"story": [
			[
				{
					"text": "So, you’re going on a journey! Car journeys can be",
					"vo": "story13_cartrip_1"
				},
				{
					"blanktype": "5"
				},
				{
					"text": "and so very", 
					"vo": "story13_cartrip_2"
				},
				{
					"blanktype": "5"
				},
				{
					"text": "but only if you’re not prepared.", 
					"vo": "story13_cartrip_3"
				}
			],
			[
				{
					"text": "You’re going on a", 
					"vo": "story13_cartrip_3b"
				},
				{
					"blanktype": "5"
				},
				{
					"text": "adventure to a far away place with lots of", 
					"vo": "story13_cartrip_4"
				},
				{
					"blanktype": "2"
				},
				{
					"text": ".", 
					"vo": ""
				}
			],
			[
				{
					"text": "Along the way, you may stop at a", 
					"vo": "story13_cartrip_5"
				},
				{
					"blanktype": "1"
				},
				{
					"text": "to refuel and maybe have a snack.",
					"vo": "story13_cartrip_6"
				}
			],
			[
				{
					"text": "It’s always good to get out of the car and stretch your", 
					"vo": "story13_cartrip_6b"
				},
				{
					"blanktype": "2"
				},
				{
					"text": ".", 
					"vo": ""
				}
			],
			[
				{
					"text": "There’s plenty of fun you can have when you’re in the car. For example, you can count",
					"vo": "story13_cartrip_7"
				},
				{
					"blanktype": "2"
				}
			],
			[
				{
					"text": "as they pass by, or even try to collect all the different locations on license plates as you go.",
					"vo": "story13_cartrip_8"
				}
			],
			[
				{
					"text": "If you can get all\n",
					"vo": "story13_cartrip_8b"
				},
				{
					"blanktype": "7"
				},
				{
					"text": ", everyone will yell",
					"vo": "story13_cartrip_9"
				},
				{
					"blanktype": "11"
				},
				{
					"text": "!", 
					"vo": ""
				}
			],
			[
				{
					"text": "Wait! Why is your dad turning the car around? Oh no! He forgot his", 
					"vo": "story13_cartrip_10"
				},
				{
					"blanktype": "2"
				},
				{
					"text": ".",
					"vo": ""
				}
			]
		]
	}
}